^C:\USERS\ASHEPHERD\ONEDRIVE - NUMARK INTERNATIONAL\CODING\C++\PHONE_BOOK\CLASSESTRIALS.CPP|C:\USERS\ASHEPHERD\ONEDRIVE - NUMARK INTERNATIONAL\CODING\C++\PHONE_BOOK\PHONEBOOK01.CPP
C:\USERS\ASHEPHERD\ONEDRIVE - NUMARK INTERNATIONAL\CODING\C++\PHONE_BOOK\DEBUG\VC141.PDB
C:\USERS\ASHEPHERD\ONEDRIVE - NUMARK INTERNATIONAL\CODING\C++\PHONE_BOOK\DEBUG\VC141.IDB
C:\USERS\ASHEPHERD\ONEDRIVE - NUMARK INTERNATIONAL\CODING\C++\PHONE_BOOK\DEBUG\PHONEBOOK01.OBJ
C:\USERS\ASHEPHERD\ONEDRIVE - NUMARK INTERNATIONAL\CODING\C++\PHONE_BOOK\DEBUG\CLASSESTRIALS.OBJ
^C:\USERS\ASHEPHERD\ONEDRIVE - NUMARK INTERNATIONAL\CODING\C++\PHONE_BOOK\PHONEBOOK01.CPP
C:\USERS\ASHEPHERD\ONEDRIVE - NUMARK INTERNATIONAL\CODING\C++\PHONE_BOOK\DEBUG\VC141.PDB
C:\USERS\ASHEPHERD\ONEDRIVE - NUMARK INTERNATIONAL\CODING\C++\PHONE_BOOK\DEBUG\VC141.IDB
C:\USERS\ASHEPHERD\ONEDRIVE - NUMARK INTERNATIONAL\CODING\C++\PHONE_BOOK\DEBUG\PHONEBOOK01.OBJ
